{"total":17,"count":5,"page":1,"total_page":4,"items":[{"id":8,"title":"Ins复古碎花NoteBook","subtitle":"林白默默的掏出小本本，将她说的话一次不漏的记了下来。","img":"http://i2.sleeve.7yue.pro/m19.png","for_theme_img":"http://i1.sleeve.7yue.pro/assets/b6442702-4810-46cb-bb0b-f4602d38e4ff.png","price":"29.99","discount_price":"27.8","description":null,"tags":"林白推荐","sketch_spec_id":"1","max_purchase_quantity":null,"min_purchase_quantity":null},{"id":28,"title":"Ins复古金色落地灯","subtitle":"Instagram复古台灯，就在此刻回到过去，找寻逝去的记忆","img":"http://i2.sleeve.7yue.pro/a9.png","for_theme_img":"","price":"999","discount_price":null,"description":null,"tags":"Ins$复古流行","sketch_spec_id":"8","max_purchase_quantity":null,"min_purchase_quantity":null},{"id":26,"title":"SemiConer柔质沙发","subtitle":"窝在沙发上，一杯红酒配电影","img":"http://i2.sleeve.7yue.pro/3.png","for_theme_img":"","price":"4799","discount_price":"4200","description":null,"tags":"","sketch_spec_id":"1","max_purchase_quantity":null,"min_purchase_quantity":null},{"id":25,"title":"复古双色沙发","subtitle":"双色可选，经典青黄两色","img":"http://i2.sleeve.7yue.pro/h3.png","for_theme_img":"","price":"3999","discount_price":null,"description":null,"tags":"复刻经典$双色可选","sketch_spec_id":"1","max_purchase_quantity":null,"min_purchase_quantity":null},{"id":24,"title":"秋冬新款驼色大衣","subtitle":"2020新款，暖暖过秋冬","img":"http://i2.sleeve.7yue.pro/n3.png","for_theme_img":"http://i1.sleeve.7yue.pro/assets/b8e510a1-8340-43c2-a4b0-0e56a40256f9.png","price":"2999","discount_price":"2699","description":null,"tags":"经典单色","sketch_spec_id":"1","max_purchase_quantity":null,"min_purchase_quantity":null}]}