{"total":17,"count":5,"page":2,"total_page":4,"items":[{"id":27,"title":"Mier双色靠椅","subtitle":"安静的午后，一杯清茶，追忆似水年华。看清风浮动，看落日余晖","img":"http://i2.sleeve.7yue.pro/h1.png","for_theme_img":"http://i1.sleeve.7yue.pro/assets/f6c9fce8-626f-44c0-a709-3f6ef9f3fbef.png","price":"1299","discount_price":null,"description":null,"tags":"","sketch_spec_id":"1","max_purchase_quantity":null,"min_purchase_quantity":null},{"id":12,"title":"林间有风测试商品","subtitle":"测试商品，可购买体验完整支付和订单流程","img":"http://i2.sleeve.7yue.pro/x1.png","for_theme_img":"","price":"0.2","discount_price":null,"description":null,"tags":"测试数据$可支付","sketch_spec_id":null,"max_purchase_quantity":null,"min_purchase_quantity":null},{"id":11,"title":"飞行员墨镜","subtitle":"戴起来像小李子","img":"http://i2.sleeve.7yue.pro/n2.png","for_theme_img":"","price":"77.00","discount_price":null,"description":null,"tags":null,"sketch_spec_id":null,"max_purchase_quantity":null,"min_purchase_quantity":null},{"id":6,"title":"Sleeve风袖说牛仔系列","subtitle":"Sleeve风袖说当季经典款","img":"http://i2.sleeve.7yue.pro/n14.png","for_theme_img":"","price":"1799","discount_price":"","description":null,"tags":"包邮$热门","sketch_spec_id":"1","max_purchase_quantity":null,"min_purchase_quantity":null},{"id":2,"title":"林间有风自营针织衫","subtitle":"秋日冬款，浪漫满屋","img":"http://i1.sleeve.7yue.pro/assets/ecf8d824-19d4-4db2-a5da-872ab014fecd.png","for_theme_img":"https://gitee.com/lrelia7/sleeve-static/raw/master/theme/spu1.png","price":"77.00","discount_price":"62.00","description":null,"tags":"秋日冬款$浪漫满屋","sketch_spec_id":"1","max_purchase_quantity":null,"min_purchase_quantity":null}]}