{"total":17,"count":5,"page":0,"total_page":4,"items":[{"id":23,"title":"双色牛仔裤","subtitle":"秋冬新款，做一个Cool Boy","img":"http://i2.sleeve.7yue.pro/n11.png","for_theme_img":"http://i1.sleeve.7yue.pro/assets/702f2ce9-5729-4aa4-aeb3-921513327747.png","price":"1399","discount_price":null,"description":null,"tags":"","sketch_spec_id":"1","max_purchase_quantity":null,"min_purchase_quantity":null},{"id":10,"title":"碳素墨水","subtitle":"虽然我们早已不再使用钢笔书写，但钢笔在纸上划过的笔触永远是键盘无法替代的。一只钢笔+一瓶墨水在一个安静的午后，写写内心的故事。","img":"http://i2.sleeve.7yue.pro/m24.png","for_theme_img":"","price":"80.00","discount_price":"69.00","description":null,"tags":"","sketch_spec_id":null,"max_purchase_quantity":null,"min_purchase_quantity":null},{"id":3,"title":"抹茶小橡皮","subtitle":"小作文写错了，用它擦一擦","img":"http://i2.sleeve.7yue.pro/m17.png","for_theme_img":"https://gitee.com/lrelia7/sleeve-static/raw/master/theme/spu2.png","price":"29.99","discount_price":"17.00","description":null,"tags":"一飞推荐","sketch_spec_id":"1","max_purchase_quantity":null,"min_purchase_quantity":null},{"id":15,"title":"多彩别针、回形针","subtitle":"每盒70个，可爱多彩","img":"http://i2.sleeve.7yue.pro/m26.png","for_theme_img":null,"price":"24","discount_price":"19.9","description":null,"tags":"三色可选","sketch_spec_id":"1","max_purchase_quantity":null,"min_purchase_quantity":null},{"id":14,"title":"Ins 复古小夹子（Mini)","subtitle":"静静的，享受时光的流逝","img":"http://i2.sleeve.7yue.pro/m23.png","for_theme_img":null,"price":"19.9","discount_price":null,"description":null,"tags":"三色可选","sketch_spec_id":null,"max_purchase_quantity":null,"min_purchase_quantity":null}]}